{
  "count": {
    "ok": true,
    "status": 200,
    "raw": {
      "result": true,
      "statuscode": 200,
      "message": "User call detail count fetched successfully",
      "data": {
        "totalCall": {
          "lead": 609,
          "opportunity": 0
        },
        "successCounts": {
          "lead": 328,
          "opportunity": 0
        },
        "failureCounts": {
          "lead": 20,
          "opportunity": 0
        },
        "notConnectedCounts": {
          "lead": 220,
          "opportunity": 0
        },
        "needToCall": {
          "lead": 601,
          "opportunity": 0
        }
      }
    }
  },
  "callsPage1": {
    "label": "GET /get-all-calldata?page=1",
    "ok": true,
    "status": 200,
    "recordCount": 50,
    "topLevelKeys": [
      "result",
      "statuscode",
      "message",
      "data",
      "pagination"
    ],
    "pagination": {
      "totalItems": 609,
      "totalPages": 13,
      "currentPage": 1,
      "pageSize": 50
    },
    "sampleKeys": [
      "id",
      "vendor_id",
      "event",
      "callId",
      "callType",
      "agentId",
      "agentVersion",
      "agentName"
    ]
  },
  "leadsPage1": {
    "label": "GET /get-userCall-lead?page=1",
    "ok": true,
    "status": 200,
    "recordCount": 50,
    "topLevelKeys": [
      "result",
      "statuscode",
      "message",
      "data",
      "pagination"
    ],
    "pagination": {
      "totalItems": 1201,
      "totalPages": 25,
      "currentPage": 1,
      "pageSize": 50
    },
    "sampleKeys": [
      "id",
      "vendor_id",
      "event",
      "callId",
      "callType",
      "agentId",
      "agentVersion",
      "agentName"
    ]
  },
  "crmData": {
    "label": "GET /crm-data/get-crm-data",
    "ok": true,
    "status": 200,
    "recordCount": 3720,
    "topLevelKeys": [
      "result",
      "statuscode",
      "message",
      "data"
    ],
    "pagination": null,
    "sampleKeys": [
      "name",
      "mobile_number"
    ]
  },
  "p1FirstId": "8c9cdab1-ff36-4f06-9667-3b31099ffb48",
  "pageParamDiscovery": [
    {
      "label": "GET ?page=2",
      "ok": true,
      "status": 200,
      "recordCount": 50,
      "pagination": {
        "totalItems": 609,
        "totalPages": 13,
        "currentPage": 1,
        "pageSize": 50
      },
      "reportedPage": 1,
      "firstRecordId": "8c9cdab1-ff36-4f06-9667-3b31099ffb48",
      "differentToP1": false
    },
    {
      "label": "GET ?currentPage=2",
      "ok": true,
      "status": 200,
      "recordCount": 50,
      "pagination": {
        "totalItems": 609,
        "totalPages": 13,
        "currentPage": 2,
        "pageSize": 50
      },
      "reportedPage": 2,
      "firstRecordId": "e8a7d530-c898-4c16-8375-d4091aaca78d",
      "differentToP1": true
    },
    {
      "label": "GET ?pageNumber=2",
      "ok": true,
      "status": 200,
      "recordCount": 50,
      "pagination": {
        "totalItems": 609,
        "totalPages": 13,
        "currentPage": 1,
        "pageSize": 50
      },
      "reportedPage": 1,
      "firstRecordId": "8c9cdab1-ff36-4f06-9667-3b31099ffb48",
      "differentToP1": false
    },
    {
      "label": "GET ?pageNo=2",
      "ok": true,
      "status": 200,
      "recordCount": 50,
      "pagination": {
        "totalItems": 609,
        "totalPages": 13,
        "currentPage": 1,
        "pageSize": 50
      },
      "reportedPage": 1,
      "firstRecordId": "8c9cdab1-ff36-4f06-9667-3b31099ffb48",
      "differentToP1": false
    },
    {
      "label": "GET ?p=2",
      "ok": true,
      "status": 200,
      "recordCount": 50,
      "pagination": {
        "totalItems": 609,
        "totalPages": 13,
        "currentPage": 1,
        "pageSize": 50
      },
      "reportedPage": 1,
      "firstRecordId": "8c9cdab1-ff36-4f06-9667-3b31099ffb48",
      "differentToP1": false
    },
    {
      "label": "GET ?offset=50",
      "ok": true,
      "status": 200,
      "recordCount": 50,
      "pagination": {
        "totalItems": 609,
        "totalPages": 13,
        "currentPage": 1,
        "pageSize": 50
      },
      "reportedPage": 1,
      "firstRecordId": "8c9cdab1-ff36-4f06-9667-3b31099ffb48",
      "differentToP1": false
    },
    {
      "label": "GET ?skip=50",
      "ok": true,
      "status": 200,
      "recordCount": 50,
      "pagination": {
        "totalItems": 609,
        "totalPages": 13,
        "currentPage": 1,
        "pageSize": 50
      },
      "reportedPage": 1,
      "firstRecordId": "8c9cdab1-ff36-4f06-9667-3b31099ffb48",
      "differentToP1": false
    },
    {
      "label": "POST body {page:2}",
      "ok": false,
      "status": 404,
      "recordCount": "N/A",
      "pagination": null,
      "reportedPage": null,
      "firstRecordId": null,
      "differentToP1": "unknown"
    },
    {
      "label": "POST body {currentPage:2}",
      "ok": false,
      "status": 404,
      "recordCount": "N/A",
      "pagination": null,
      "reportedPage": null,
      "firstRecordId": null,
      "differentToP1": "unknown"
    },
    {
      "label": "GET leads ?currentPage=2",
      "ok": true,
      "status": 200,
      "recordCount": 50,
      "pagination": {
        "totalItems": 1201,
        "totalPages": 25,
        "currentPage": 2,
        "pageSize": 50
      },
      "reportedPage": 2,
      "firstRecordId": "d93e1d83-56b6-44b7-b23a-17cea638479e",
      "differentToP1": true
    },
    {
      "label": "GET leads ?pageNumber=2",
      "ok": true,
      "status": 200,
      "recordCount": 50,
      "pagination": {
        "totalItems": 1201,
        "totalPages": 25,
        "currentPage": 1,
        "pageSize": 50
      },
      "reportedPage": 1,
      "firstRecordId": "d7f7b86a-7403-4182-a130-b129c8406aaf",
      "differentToP1": true
    }
  ]
}